[gd_scene load_steps=6 format=2]

[ext_resource path="res://resources/tileset.tres" type="TileSet" id=1]
[ext_resource path="res://scenes/levels/Level2.gd" type="Script" id=2]
[ext_resource path="res://scenes/characters/Player.tscn" type="PackedScene" id=3]
[ext_resource path="res://scenes/ui/UI.tscn" type="PackedScene" id=4]
[ext_resource path="res://scenes/TileMap.gd" type="Script" id=5]

[node name="Level2" type="Node2D"]
script = ExtResource( 2 )

[node name="TileMap" type="TileMap" parent="."]
tile_set = ExtResource( 1 )
cell_size = Vector2( 16, 16 )
format = 1
tile_data = PoolIntArray( 0, 1, 0, 1, 1, 1, 2, 1, 1, 3, 1, 1, 4, 1, 1, 5, 1, 1, 6, 1, 1, 7, 1, 1, 8, 1, 1, 9, 1, 1, 10, 1, 1, 11, 1, 1, 12, 1, 1, 13, 1, 1, 14, 1, 1, 15, 1, 1, 16, 1, 1, 17, 1, 1, 18, 1, 1, 19, 1, 1, 20, 1, 1, 21, 1, 1, 22, 1, 1, 23, 1, 1, 24, 1, 1, 25, 1, 1, 26, 1, 1, 27, 1, 1, 28, 1, 1, 29, 1, 1, 30, 1, 1, 31, 1, 1, 32, 1, 1, 33, 1, 1, 34, 1, 1, 35, 1, 1, 36, 1, 1, 37, 1, 1, 38, 1, 1, 39, 1, 1, 40, 1, 1, 41, 1, 1, 42, 1, 1, 43, 1, 1, 44, 1, 1, 45, 1, 1, 46, 1, 1, 47, 1, 1, 48, 1, 1, 49, 1, 1, 50, 1, 1, 51, 1, 1, 52, 1, 1, 53, 1, 1, 54, 1, 1, 55, 1, 1, 56, 1, 1, 57, 1, 1, 58, 1, 1, 59, 1, 1, 60, 1, 1, 61, 1, 2, 65536, 1, 65536, 65537, 1, 0, 65538, 1, 0, 65539, 1, 0, 65540, 1, 0, 65541, 1, 0, 65542, 1, 0, 65543, 1, 0, 65544, 1, 0, 65545, 1, 0, 65546, 1, 0, 65547, 1, 0, 65548, 1, 0, 65549, 1, 0, 65550, 1, 0, 65551, 1, 0, 65552, 1, 0, 65553, 1, 0, 65554, 1, 0, 65555, 1, 0, 65556, 1, 0, 65557, 1, 0, 65558, 1, 0, 65559, 1, 0, 65560, 1, 0, 65561, 1, 0, 65562, 1, 0, 65563, 1, 0, 65564, 1, 0, 65565, 1, 0, 65566, 1, 0, 65567, 1, 0, 65568, 1, 0, 65569, 1, 0, 65570, 1, 0, 65571, 1, 0, 65572, 1, 0, 65573, 1, 0, 65574, 1, 0, 65575, 1, 0, 65576, 1, 0, 65577, 1, 0, 65578, 1, 0, 65579, 1, 0, 65580, 1, 0, 65581, 1, 0, 65582, 1, 0, 65583, 1, 0, 65584, 1, 0, 65585, 1, 0, 65586, 1, 0, 65587, 1, 0, 65588, 1, 0, 65589, 1, 0, 65590, 1, 0, 65591, 1, 0, 65592, 1, 0, 65593, 1, 0, 65594, 1, 0, 65595, 1, 0, 65596, 1, 0, 65597, 1, 65538, 131072, 1, 65536, 131073, 1, 0, 131074, 1, 0, 131075, 1, 0, 131076, 1, 0, 131077, 1, 0, 131078, 1, 0, 131079, 1, 0, 131080, 1, 0, 131081, 1, 0, 131082, 1, 0, 131083, 1, 0, 131084, 1, 0, 131085, 1, 0, 131086, 1, 0, 131087, 1, 0, 131088, 1, 0, 131089, 1, 0, 131090, 1, 0, 131091, 1, 0, 131092, 1, 0, 131093, 1, 0, 131094, 1, 0, 131095, 1, 0, 131096, 1, 0, 131097, 1, 0, 131098, 1, 0, 131099, 1, 0, 131100, 1, 0, 131101, 1, 0, 131102, 1, 0, 131103, 1, 0, 131104, 1, 0, 131105, 1, 0, 131106, 1, 0, 131107, 1, 0, 131108, 1, 0, 131109, 1, 0, 131110, 1, 0, 131111, 1, 0, 131112, 1, 0, 131113, 1, 0, 131114, 1, 0, 131115, 1, 0, 131116, 1, 0, 131117, 1, 0, 131118, 1, 0, 131119, 1, 0, 131120, 1, 0, 131121, 1, 0, 131122, 1, 0, 131123, 1, 0, 131124, 1, 0, 131125, 1, 0, 131126, 1, 0, 131127, 1, 0, 131128, 1, 0, 131129, 1, 0, 131130, 1, 0, 131131, 1, 0, 131132, 1, 0, 131133, 1, 65538, 196608, 1, 65536, 196609, 1, 0, 196610, 1, 0, 196611, 1, 0, 196612, 1, 0, 196613, 1, 0, 196614, 1, 0, 196615, 1, 0, 196616, 1, 0, 196617, 1, 0, 196618, 1, 0, 196619, 1, 0, 196620, 1, 0, 196621, 1, 0, 196622, 1, 0, 196623, 1, 0, 196624, 1, 0, 196625, 1, 0, 196626, 1, 0, 196627, 1, 0, 196628, 1, 0, 196629, 1, 0, 196630, 1, 0, 196631, 1, 0, 196632, 1, 0, 196633, 1, 0, 196634, 1, 0, 196635, 1, 0, 196636, 1, 0, 196637, 1, 0, 196638, 1, 0, 196639, 1, 0, 196640, 1, 0, 196641, 1, 0, 196642, 1, 0, 196643, 1, 0, 196644, 1, 0, 196645, 1, 0, 196646, 1, 0, 196647, 1, 0, 196648, 1, 0, 196649, 1, 0, 196650, 1, 0, 196651, 1, 0, 196652, 1, 0, 196653, 1, 0, 196654, 1, 0, 196655, 1, 0, 196656, 1, 0, 196657, 1, 0, 196658, 1, 0, 196659, 1, 0, 196660, 1, 0, 196661, 1, 0, 196662, 1, 0, 196663, 1, 0, 196664, 1, 0, 196665, 1, 0, 196666, 1, 0, 196667, 1, 0, 196668, 1, 0, 196669, 1, 65538, 262144, 1, 65536, 262145, 1, 0, 262146, 1, 0, 262147, 1, 0, 262148, 1, 0, 262149, 1, 0, 262150, 1, 0, 262151, 1, 0, 262152, 1, 0, 262153, 1, 0, 262154, 1, 0, 262155, 1, 0, 262156, 1, 0, 262157, 1, 0, 262158, 1, 0, 262159, 1, 0, 262160, 1, 0, 262161, 1, 0, 262162, 1, 0, 262163, 1, 0, 262164, 1, 0, 262165, 1, 0, 262166, 1, 0, 262167, 1, 0, 262168, 1, 0, 262169, 1, 0, 262170, 1, 0, 262171, 1, 0, 262172, 1, 0, 262173, 1, 0, 262174, 1, 0, 262175, 1, 0, 262176, 1, 0, 262177, 1, 0, 262178, 1, 0, 262179, 1, 0, 262180, 1, 0, 262181, 1, 0, 262182, 1, 0, 262183, 1, 0, 262184, 1, 0, 262185, 1, 0, 262186, 1, 0, 262187, 1, 0, 262188, 1, 0, 262189, 1, 0, 262190, 1, 0, 262191, 1, 0, 262192, 1, 0, 262193, 1, 0, 262194, 1, 0, 262195, 1, 0, 262196, 1, 0, 262197, 1, 0, 262198, 1, 0, 262199, 1, 0, 262200, 1, 0, 262201, 1, 0, 262202, 1, 0, 262203, 1, 0, 262204, 1, 0, 262205, 1, 65538, 327680, 1, 65536, 327681, 1, 0, 327682, 1, 0, 327683, 1, 0, 327684, 1, 0, 327685, 1, 0, 327686, 1, 0, 327687, 1, 0, 327688, 1, 0, 327689, 1, 0, 327690, 1, 0, 327691, 1, 0, 327692, 1, 0, 327693, 1, 0, 327694, 1, 0, 327695, 1, 0, 327696, 1, 0, 327697, 1, 0, 327698, 1, 0, 327699, 1, 0, 327700, 1, 0, 327701, 1, 0, 327702, 1, 0, 327703, 1, 0, 327704, 1, 0, 327705, 1, 0, 327706, 1, 0, 327707, 1, 0, 327708, 1, 0, 327709, 1, 0, 327710, 1, 0, 327711, 1, 0, 327712, 1, 0, 327713, 1, 0, 327714, 1, 0, 327715, 1, 0, 327716, 1, 0, 327717, 1, 0, 327718, 1, 0, 327719, 1, 0, 327720, 1, 0, 327721, 1, 0, 327722, 1, 0, 327723, 1, 0, 327724, 1, 0, 327725, 1, 0, 327726, 1, 0, 327727, 1, 0, 327728, 1, 0, 327729, 1, 0, 327730, 1, 0, 327731, 1, 0, 327732, 1, 0, 327733, 1, 0, 327734, 1, 0, 327735, 1, 0, 327736, 1, 0, 327737, 1, 0, 327738, 1, 0, 327739, 1, 0, 327740, 1, 0, 327741, 1, 65538, 393216, 1, 65536, 393217, 1, 0, 393218, 1, 0, 393219, 1, 0, 393220, 1, 0, 393221, 1, 0, 393222, 1, 0, 393223, 1, 0, 393224, 1, 0, 393225, 1, 0, 393226, 1, 0, 393227, 1, 0, 393228, 1, 0, 393229, 1, 0, 393230, 1, 0, 393231, 1, 0, 393232, 1, 0, 393233, 1, 0, 393234, 1, 0, 393235, 1, 0, 393236, 1, 0, 393237, 1, 0, 393238, 1, 0, 393239, 1, 0, 393240, 1, 0, 393241, 1, 0, 393242, 1, 0, 393243, 1, 0, 393244, 1, 0, 393245, 1, 0, 393246, 1, 0, 393247, 1, 0, 393248, 1, 0, 393249, 1, 0, 393250, 1, 0, 393251, 1, 0, 393252, 1, 0, 393253, 1, 0, 393254, 1, 0, 393255, 1, 0, 393256, 1, 0, 393257, 1, 0, 393258, 1, 0, 393259, 1, 0, 393260, 1, 0, 393261, 1, 0, 393262, 1, 0, 393263, 1, 0, 393264, 1, 0, 393265, 1, 0, 393266, 1, 0, 393267, 1, 0, 393268, 1, 0, 393269, 1, 0, 393270, 1, 0, 393271, 1, 0, 393272, 1, 0, 393273, 1, 0, 393274, 1, 0, 393275, 1, 0, 393276, 1, 0, 393277, 1, 65538, 458752, 1, 65536, 458753, 1, 0, 458754, 1, 0, 458755, 1, 0, 458756, 1, 0, 458757, 1, 0, 458758, 1, 0, 458759, 1, 0, 458760, 1, 0, 458761, 1, 0, 458762, 1, 0, 458763, 1, 0, 458764, 1, 0, 458765, 1, 0, 458766, 1, 0, 458767, 1, 0, 458768, 1, 0, 458769, 1, 0, 458770, 1, 0, 458771, 1, 0, 458772, 1, 0, 458773, 1, 0, 458774, 1, 0, 458775, 1, 0, 458776, 1, 0, 458777, 1, 0, 458778, 1, 0, 458779, 1, 0, 458780, 1, 0, 458781, 1, 0, 458782, 1, 0, 458783, 1, 0, 458784, 1, 0, 458785, 1, 0, 458786, 1, 0, 458787, 1, 0, 458788, 1, 0, 458789, 1, 0, 458790, 1, 0, 458791, 1, 0, 458792, 1, 0, 458793, 1, 0, 458794, 1, 0, 458795, 1, 0, 458796, 1, 0, 458797, 1, 0, 458798, 1, 0, 458799, 1, 0, 458800, 1, 0, 458801, 1, 0, 458802, 1, 0, 458803, 1, 0, 458804, 1, 0, 458805, 1, 0, 458806, 1, 0, 458807, 1, 0, 458808, 1, 0, 458809, 1, 0, 458810, 1, 0, 458811, 1, 0, 458812, 1, 0, 458813, 1, 65538, 524288, 1, 65536, 524289, 1, 0, 524290, 1, 0, 524291, 1, 0, 524292, 1, 0, 524293, 1, 0, 524294, 1, 0, 524295, 1, 0, 524296, 1, 0, 524297, 1, 0, 524298, 1, 0, 524299, 1, 0, 524300, 1, 0, 524301, 1, 0, 524302, 1, 0, 524303, 1, 0, 524304, 1, 0, 524305, 1, 0, 524306, 1, 0, 524307, 1, 0, 524308, 1, 0, 524309, 1, 0, 524310, 1, 0, 524311, 1, 0, 524312, 1, 0, 524313, 1, 0, 524314, 1, 0, 524315, 1, 0, 524316, 1, 0, 524317, 1, 0, 524318, 1, 0, 524319, 1, 0, 524320, 1, 0, 524321, 1, 0, 524322, 1, 0, 524323, 1, 0, 524324, 1, 0, 524325, 1, 0, 524326, 1, 0, 524327, 1, 0, 524328, 1, 0, 524329, 1, 0, 524330, 1, 0, 524331, 1, 0, 524332, 1, 0, 524333, 1, 0, 524334, 1, 0, 524335, 1, 0, 524336, 1, 0, 524337, 1, 0, 524338, 1, 0, 524339, 1, 0, 524340, 1, 0, 524341, 1, 0, 524342, 1, 0, 524343, 1, 0, 524344, 1, 0, 524345, 1, 0, 524346, 1, 0, 524347, 1, 0, 524348, 1, 0, 524349, 1, 65538, 589824, 1, 65536, 589825, 1, 0, 589826, 1, 0, 589827, 1, 0, 589828, 1, 0, 589829, 1, 0, 589830, 1, 0, 589831, 1, 0, 589832, 1, 0, 589833, 1, 0, 589834, 1, 0, 589835, 1, 0, 589836, 1, 0, 589837, 1, 0, 589838, 1, 0, 589839, 1, 0, 589840, 1, 0, 589841, 1, 0, 589842, 1, 0, 589843, 1, 0, 589844, 1, 0, 589845, 1, 0, 589846, 1, 0, 589847, 1, 0, 589848, 1, 0, 589849, 1, 0, 589850, 1, 0, 589851, 1, 0, 589852, 1, 0, 589853, 1, 0, 589854, 1, 0, 589855, 1, 0, 589856, 1, 0, 589857, 1, 0, 589858, 1, 0, 589859, 1, 0, 589860, 1, 0, 589861, 1, 0, 589862, 1, 0, 589863, 1, 0, 589864, 1, 0, 589865, 1, 0, 589866, 1, 0, 589867, 1, 0, 589868, 1, 0, 589869, 1, 0, 589870, 1, 0, 589871, 1, 0, 589872, 1, 0, 589873, 1, 0, 589874, 1, 0, 589875, 1, 0, 589876, 1, 0, 589877, 1, 0, 589878, 1, 0, 589879, 1, 0, 589880, 1, 0, 589881, 1, 0, 589882, 1, 0, 589883, 1, 0, 589884, 1, 0, 589885, 1, 65538, 655360, 1, 65536, 655361, 1, 0, 655362, 1, 0, 655363, 1, 0, 655364, 1, 0, 655365, 1, 0, 655366, 1, 0, 655367, 1, 0, 655368, 1, 0, 655369, 1, 0, 655370, 1, 0, 655371, 1, 0, 655372, 1, 0, 655373, 1, 0, 655374, 1, 0, 655375, 1, 0, 655376, 1, 0, 655377, 1, 0, 655378, 1, 0, 655379, 1, 0, 655380, 1, 0, 655381, 1, 0, 655382, 1, 0, 655383, 1, 0, 655384, 1, 0, 655385, 1, 0, 655386, 1, 0, 655387, 1, 0, 655388, 1, 0, 655389, 1, 0, 655390, 1, 0, 655391, 1, 0, 655392, 1, 0, 655393, 1, 0, 655394, 1, 0, 655395, 1, 0, 655396, 1, 0, 655397, 1, 0, 655398, 1, 0, 655399, 1, 0, 655400, 1, 0, 655401, 1, 0, 655402, 1, 0, 655403, 1, 0, 655404, 1, 0, 655405, 1, 0, 655406, 1, 0, 655407, 1, 0, 655408, 1, 0, 655409, 1, 0, 655410, 1, 0, 655411, 1, 0, 655412, 1, 0, 655413, 1, 0, 655414, 1, 0, 655415, 1, 0, 655416, 1, 0, 655417, 1, 0, 655418, 1, 0, 655419, 1, 0, 655420, 1, 0, 655421, 1, 65538, 720896, 1, 65536, 720897, 1, 0, 720898, 1, 0, 720899, 1, 0, 720900, 1, 0, 720901, 1, 0, 720902, 1, 0, 720903, 1, 0, 720904, 1, 0, 720905, 1, 0, 720906, 1, 0, 720907, 1, 0, 720908, 1, 0, 720909, 1, 0, 720910, 1, 0, 720911, 1, 0, 720912, 1, 0, 720913, 1, 0, 720914, 1, 0, 720915, 1, 0, 720916, 1, 0, 720917, 1, 0, 720918, 1, 0, 720919, 1, 0, 720920, 1, 0, 720921, 1, 0, 720922, 1, 0, 720923, 1, 0, 720924, 1, 0, 720925, 1, 0, 720926, 1, 0, 720927, 1, 0, 720928, 1, 0, 720929, 1, 0, 720930, 1, 0, 720931, 1, 0, 720932, 1, 0, 720933, 1, 0, 720934, 1, 0, 720935, 1, 0, 720936, 1, 0, 720937, 1, 0, 720938, 1, 0, 720939, 1, 0, 720940, 1, 0, 720941, 1, 0, 720942, 1, 0, 720943, 1, 0, 720944, 1, 0, 720945, 1, 0, 720946, 1, 0, 720947, 1, 0, 720948, 1, 0, 720949, 1, 0, 720950, 1, 0, 720951, 1, 0, 720952, 1, 0, 720953, 1, 0, 720954, 1, 0, 720955, 1, 0, 720956, 1, 0, 720957, 1, 65538, 786432, 1, 65536, 786433, 1, 0, 786434, 1, 0, 786435, 1, 0, 786436, 1, 0, 786437, 1, 0, 786438, 1, 0, 786439, 1, 0, 786440, 1, 0, 786441, 1, 0, 786442, 1, 0, 786443, 1, 0, 786444, 1, 0, 786445, 1, 0, 786446, 1, 0, 786447, 1, 0, 786448, 1, 0, 786449, 1, 0, 786450, 1, 0, 786451, 1, 0, 786452, 1, 0, 786453, 1, 0, 786454, 1, 0, 786455, 1, 0, 786456, 1, 0, 786457, 1, 0, 786458, 1, 0, 786459, 1, 0, 786460, 1, 0, 786461, 1, 0, 786462, 1, 0, 786463, 1, 0, 786464, 1, 0, 786465, 1, 0, 786466, 1, 0, 786467, 1, 0, 786468, 1, 0, 786469, 1, 0, 786470, 1, 0, 786471, 1, 0, 786472, 1, 0, 786473, 1, 0, 786474, 0, 0, 786475, 1, 0, 786476, 1, 0, 786477, 1, 0, 786478, 1, 0, 786479, 1, 0, 786480, 1, 0, 786481, 1, 0, 786482, 1, 0, 786483, 1, 0, 786484, 1, 0, 786485, 1, 0, 786486, 1, 0, 786487, 1, 0, 786488, 1, 0, 786489, 1, 0, 786490, 1, 0, 786491, 1, 0, 786492, 1, 0, 786493, 1, 65538, 851968, 1, 65536, 851969, 1, 0, 851970, 1, 0, 851971, 1, 0, 851972, 1, 0, 851973, 1, 0, 851974, 1, 0, 851975, 1, 0, 851976, 1, 0, 851977, 1, 0, 851978, 1, 0, 851979, 1, 0, 851980, 1, 0, 851981, 1, 0, 851982, 1, 0, 851983, 1, 0, 851984, 1, 0, 851985, 1, 0, 851986, 1, 0, 851987, 1, 0, 851988, 1, 0, 851989, 1, 0, 851990, 1, 0, 851991, 1, 0, 851992, 1, 0, 851993, 1, 0, 851994, 1, 0, 851995, 1, 0, 851996, 0, 0, 851997, 1, 0, 851998, 1, 0, 851999, 1, 0, 852000, 1, 0, 852001, 1, 0, 852002, 1, 0, 852003, 1, 0, 852004, 1, 0, 852005, 1, 0, 852006, 1, 0, 852007, 0, 0, 852008, 0, 0, 852009, 0, 0, 852010, 0, 0, 852011, 1, 0, 852012, 1, 0, 852013, 1, 0, 852014, 1, 0, 852015, 1, 0, 852016, 1, 0, 852017, 1, 0, 852018, 1, 0, 852019, 1, 0, 852020, 1, 0, 852021, 1, 0, 852022, 1, 0, 852023, 1, 0, 852024, 1, 0, 852025, 1, 0, 852026, 1, 0, 852027, 1, 0, 852028, 1, 0, 852029, 1, 65538, 917504, 1, 65536, 917505, 1, 0, 917506, 1, 0, 917507, 1, 0, 917508, 1, 0, 917509, 1, 0, 917510, 1, 0, 917511, 1, 0, 917512, 1, 0, 917513, 1, 0, 917514, 1, 0, 917515, 1, 0, 917516, 1, 0, 917517, 1, 0, 917518, 1, 0, 917519, 1, 0, 917520, 1, 0, 917521, 1, 0, 917522, 1, 0, 917523, 1, 0, 917524, 1, 0, 917525, 1, 0, 917526, 1, 0, 917527, 1, 0, 917528, 1, 0, 917529, 1, 0, 917530, 1, 0, 917531, 0, 0, 917532, 0, 0, 917533, 0, 0, 917534, 0, 0, 917535, 0, 0, 917536, 0, 0, 917537, 0, 0, 917538, 0, 0, 917539, 0, 0, 917540, 0, 0, 917541, 1, 0, 917542, 0, 0, 917543, 0, 0, 917544, 0, 0, 917545, 0, 0, 917546, 0, 0, 917547, 0, 0, 917548, 0, 0, 917549, 0, 0, 917550, 1, 0, 917551, 1, 0, 917552, 1, 0, 917553, 1, 0, 917554, 1, 0, 917555, 1, 0, 917556, 1, 0, 917557, 1, 0, 917558, 1, 0, 917559, 1, 0, 917560, 1, 0, 917561, 1, 0, 917562, 1, 0, 917563, 1, 0, 917564, 1, 0, 917565, 1, 65538, 983040, 1, 65536, 983041, 1, 0, 983042, 1, 0, 983043, 1, 0, 983044, 1, 0, 983045, 1, 0, 983046, 1, 0, 983047, 1, 0, 983048, 1, 0, 983049, 1, 0, 983050, 1, 0, 983051, 1, 0, 983052, 1, 0, 983053, 1, 0, 983054, 1, 0, 983055, 1, 0, 983056, 1, 0, 983057, 1, 0, 983058, 1, 0, 983059, 1, 0, 983060, 1, 0, 983061, 1, 0, 983062, 1, 0, 983063, 1, 0, 983064, 1, 0, 983065, 1, 0, 983066, 0, 0, 983067, 0, 0, 983068, 0, 0, 983069, 0, 0, 983070, 0, 0, 983071, 0, 0, 983072, 0, 0, 983073, 0, 0, 983074, 0, 0, 983075, 0, 0, 983076, 0, 0, 983077, 1, 0, 983078, 0, 0, 983079, 0, 0, 983080, 0, 0, 983081, 0, 0, 983082, 0, 0, 983083, 0, 0, 983084, 0, 0, 983085, 0, 0, 983086, 1, 0, 983087, 1, 0, 983088, 1, 0, 983089, 1, 0, 983090, 1, 0, 983091, 1, 0, 983092, 1, 0, 983093, 1, 0, 983094, 1, 0, 983095, 1, 0, 983096, 1, 0, 983097, 1, 0, 983098, 1, 0, 983099, 1, 0, 983100, 1, 0, 983101, 1, 65538, 1048576, 1, 65536, 1048577, 1, 0, 1048578, 1, 0, 1048579, 1, 0, 1048580, 1, 0, 1048581, 1, 0, 1048582, 1, 0, 1048583, 1, 0, 1048584, 1, 0, 1048585, 1, 0, 1048586, 1, 0, 1048587, 1, 0, 1048588, 1, 0, 1048589, 1, 0, 1048590, 1, 0, 1048591, 1, 0, 1048592, 1, 0, 1048593, 1, 0, 1048594, 1, 0, 1048595, 1, 0, 1048596, 1, 0, 1048597, 1, 0, 1048598, 1, 0, 1048599, 1, 0, 1048600, 1, 0, 1048601, 0, 0, 1048602, 0, 0, 1048603, 0, 0, 1048604, 0, 0, 1048605, 0, 0, 1048606, 0, 0, 1048607, 0, 0, 1048608, 0, 0, 1048609, 0, 0, 1048610, 0, 0, 1048611, 0, 0, 1048612, 0, 0, 1048613, 0, 0, 1048614, 0, 0, 1048615, 0, 0, 1048616, 0, 0, 1048617, 0, 0, 1048618, 0, 0, 1048619, 0, 0, 1048620, 0, 0, 1048621, 0, 0, 1048622, 1, 0, 1048623, 1, 0, 1048624, 1, 0, 1048625, 1, 0, 1048626, 1, 0, 1048627, 1, 0, 1048628, 1, 0, 1048629, 1, 0, 1048630, 1, 0, 1048631, 1, 0, 1048632, 1, 0, 1048633, 1, 0, 1048634, 1, 0, 1048635, 1, 0, 1048636, 1, 0, 1048637, 1, 65538, 1114112, 1, 65536, 1114113, 1, 0, 1114114, 1, 0, 1114115, 1, 0, 1114116, 1, 0, 1114117, 1, 0, 1114118, 1, 0, 1114119, 1, 0, 1114120, 1, 0, 1114121, 1, 0, 1114122, 1, 0, 1114123, 1, 0, 1114124, 1, 0, 1114125, 1, 0, 1114126, 1, 0, 1114127, 1, 0, 1114128, 1, 0, 1114129, 1, 0, 1114130, 1, 0, 1114131, 1, 0, 1114132, 1, 0, 1114133, 1, 0, 1114134, 1, 0, 1114135, 1, 0, 1114136, 0, 0, 1114137, 0, 0, 1114138, 0, 0, 1114139, 0, 0, 1114140, 0, 0, 1114141, 0, 0, 1114142, 0, 0, 1114143, 1, 0, 1114144, 0, 0, 1114145, 0, 0, 1114146, 0, 0, 1114147, 0, 0, 1114148, 0, 0, 1114149, 0, 0, 1114150, 0, 0, 1114151, 0, 0, 1114152, 0, 0, 1114153, 0, 0, 1114154, 0, 0, 1114155, 0, 0, 1114156, 0, 0, 1114157, 0, 0, 1114158, 1, 0, 1114159, 1, 0, 1114160, 1, 0, 1114161, 1, 0, 1114162, 1, 0, 1114163, 1, 0, 1114164, 1, 0, 1114165, 1, 0, 1114166, 1, 0, 1114167, 1, 0, 1114168, 1, 0, 1114169, 1, 0, 1114170, 1, 0, 1114171, 1, 0, 1114172, 1, 0, 1114173, 1, 65538, 1179648, 1, 65536, 1179649, 1, 0, 1179650, 1, 0, 1179651, 1, 0, 1179652, 1, 0, 1179653, 1, 0, 1179654, 1, 0, 1179655, 1, 0, 1179656, 1, 0, 1179657, 1, 0, 1179658, 1, 0, 1179659, 1, 0, 1179660, 1, 0, 1179661, 1, 0, 1179662, 1, 0, 1179663, 1, 0, 1179664, 1, 0, 1179665, 1, 0, 1179666, 1, 0, 1179667, 1, 0, 1179668, 1, 0, 1179669, 1, 0, 1179670, 1, 0, 1179671, 0, 0, 1179672, 0, 0, 1179673, 0, 0, 1179674, 0, 0, 1179675, 0, 0, 1179676, 0, 0, 1179677, 0, 0, 1179678, 0, 0, 1179679, 1, 0, 1179680, 0, 0, 1179681, 0, 0, 1179682, 0, 0, 1179683, 0, 0, 1179684, 0, 0, 1179685, 1, 0, 1179686, 0, 0, 1179687, 0, 0, 1179688, 0, 0, 1179689, 0, 0, 1179690, 0, 0, 1179691, 0, 0, 1179692, 0, 0, 1179693, 0, 0, 1179694, 1, 0, 1179695, 1, 0, 1179696, 1, 0, 1179697, 1, 0, 1179698, 1, 0, 1179699, 1, 0, 1179700, 1, 0, 1179701, 1, 0, 1179702, 1, 0, 1179703, 1, 0, 1179704, 1, 0, 1179705, 1, 0, 1179706, 1, 0, 1179707, 1, 0, 1179708, 1, 0, 1179709, 1, 65538, 1245184, 1, 65536, 1245185, 1, 0, 1245186, 1, 0, 1245187, 1, 0, 1245188, 1, 0, 1245189, 1, 0, 1245190, 1, 0, 1245191, 1, 0, 1245192, 1, 0, 1245193, 1, 0, 1245194, 1, 0, 1245195, 1, 0, 1245196, 1, 0, 1245197, 1, 0, 1245198, 1, 0, 1245199, 1, 0, 1245200, 1, 0, 1245201, 1, 0, 1245202, 1, 0, 1245203, 1, 0, 1245204, 1, 0, 1245205, 1, 0, 1245206, 1, 0, 1245207, 0, 0, 1245208, 0, 0, 1245209, 0, 0, 1245210, 0, 0, 1245211, 0, 0, 1245212, 0, 0, 1245213, 0, 0, 1245214, 0, 0, 1245215, 1, 0, 1245216, 0, 0, 1245217, 0, 0, 1245218, 0, 0, 1245219, 0, 0, 1245220, 0, 0, 1245221, 1, 0, 1245222, 0, 0, 1245223, 0, 0, 1245224, 0, 0, 1245225, 0, 0, 1245226, 0, 0, 1245227, 0, 0, 1245228, 0, 0, 1245229, 0, 0, 1245230, 1, 0, 1245231, 1, 0, 1245232, 1, 0, 1245233, 1, 0, 1245234, 1, 0, 1245235, 1, 0, 1245236, 1, 0, 1245237, 1, 0, 1245238, 1, 0, 1245239, 1, 0, 1245240, 1, 0, 1245241, 1, 0, 1245242, 1, 0, 1245243, 1, 0, 1245244, 1, 0, 1245245, 1, 65538, 1310720, 1, 65536, 1310721, 1, 0, 1310722, 1, 0, 1310723, 1, 0, 1310724, 1, 0, 1310725, 1, 0, 1310726, 1, 0, 1310727, 1, 0, 1310728, 1, 0, 1310729, 1, 0, 1310730, 1, 0, 1310731, 1, 0, 1310732, 1, 0, 1310733, 1, 0, 1310734, 1, 0, 1310735, 1, 0, 1310736, 1, 0, 1310737, 1, 0, 1310738, 1, 0, 1310739, 1, 0, 1310740, 1, 0, 1310741, 1, 0, 1310742, 1, 0, 1310743, 0, 0, 1310744, 0, 0, 1310745, 0, 0, 1310746, 0, 0, 1310747, 0, 0, 1310748, 0, 0, 1310749, 0, 0, 1310750, 0, 0, 1310751, 1, 0, 1310752, 1, 0, 1310753, 1, 0, 1310754, 1, 0, 1310755, 1, 0, 1310756, 1, 0, 1310757, 1, 0, 1310758, 1, 0, 1310759, 1, 0, 1310760, 1, 0, 1310761, 1, 0, 1310762, 1, 0, 1310763, 1, 0, 1310764, 1, 0, 1310765, 1, 0, 1310766, 1, 0, 1310767, 1, 0, 1310768, 1, 0, 1310769, 1, 0, 1310770, 1, 0, 1310771, 1, 0, 1310772, 1, 0, 1310773, 1, 0, 1310774, 1, 0, 1310775, 1, 0, 1310776, 1, 0, 1310777, 1, 0, 1310778, 1, 0, 1310779, 1, 0, 1310780, 1, 0, 1310781, 1, 65538, 1376256, 1, 65536, 1376257, 1, 0, 1376258, 1, 0, 1376259, 1, 0, 1376260, 1, 0, 1376261, 1, 0, 1376262, 1, 0, 1376263, 1, 0, 1376264, 1, 0, 1376265, 1, 0, 1376266, 1, 0, 1376267, 1, 0, 1376268, 1, 0, 1376269, 1, 0, 1376270, 1, 0, 1376271, 1, 0, 1376272, 1, 0, 1376273, 1, 0, 1376274, 1, 0, 1376275, 1, 0, 1376276, 1, 0, 1376277, 1, 0, 1376278, 1, 0, 1376279, 0, 0, 1376280, 0, 0, 1376281, 0, 0, 1376282, 0, 0, 1376283, 0, 0, 1376284, 0, 0, 1376285, 0, 0, 1376286, 0, 0, 1376287, 1, 0, 1376288, 0, 0, 1376289, 0, 0, 1376290, 0, 0, 1376291, 0, 0, 1376292, 0, 0, 1376293, 0, 0, 1376294, 0, 0, 1376295, 0, 0, 1376296, 1, 0, 1376297, 0, 0, 1376298, 0, 0, 1376299, 0, 0, 1376300, 0, 0, 1376301, 0, 0, 1376302, 1, 0, 1376303, 1, 0, 1376304, 1, 0, 1376305, 1, 0, 1376306, 1, 0, 1376307, 1, 0, 1376308, 1, 0, 1376309, 1, 0, 1376310, 1, 0, 1376311, 1, 0, 1376312, 1, 0, 1376313, 1, 0, 1376314, 1, 0, 1376315, 1, 0, 1376316, 1, 0, 1376317, 1, 65538, 1441792, 1, 65536, 1441793, 1, 0, 1441794, 1, 0, 1441795, 1, 0, 1441796, 1, 0, 1441797, 1, 0, 1441798, 1, 0, 1441799, 1, 0, 1441800, 1, 0, 1441801, 1, 0, 1441802, 1, 0, 1441803, 1, 0, 1441804, 1, 0, 1441805, 1, 0, 1441806, 1, 0, 1441807, 1, 0, 1441808, 1, 0, 1441809, 1, 0, 1441810, 1, 0, 1441811, 1, 0, 1441812, 1, 0, 1441813, 1, 0, 1441814, 1, 0, 1441815, 0, 0, 1441816, 0, 0, 1441817, 0, 0, 1441818, 0, 0, 1441819, 0, 0, 1441820, 0, 0, 1441821, 0, 0, 1441822, 0, 0, 1441823, 1, 0, 1441824, 0, 0, 1441825, 0, 0, 1441826, 0, 0, 1441827, 0, 0, 1441828, 0, 0, 1441829, 0, 0, 1441830, 0, 0, 1441831, 0, 0, 1441832, 1, 0, 1441833, 0, 0, 1441834, 0, 0, 1441835, 0, 0, 1441836, 0, 0, 1441837, 0, 0, 1441838, 1, 0, 1441839, 1, 0, 1441840, 1, 0, 1441841, 1, 0, 1441842, 1, 0, 1441843, 1, 0, 1441844, 1, 0, 1441845, 1, 0, 1441846, 1, 0, 1441847, 1, 0, 1441848, 1, 0, 1441849, 1, 0, 1441850, 1, 0, 1441851, 1, 0, 1441852, 1, 0, 1441853, 1, 65538, 1507328, 1, 65536, 1507329, 1, 0, 1507330, 1, 0, 1507331, 1, 0, 1507332, 1, 0, 1507333, 1, 0, 1507334, 1, 0, 1507335, 1, 0, 1507336, 1, 0, 1507337, 1, 0, 1507338, 1, 0, 1507339, 1, 0, 1507340, 1, 0, 1507341, 1, 0, 1507342, 1, 0, 1507343, 1, 0, 1507344, 1, 0, 1507345, 1, 0, 1507346, 1, 0, 1507347, 1, 0, 1507348, 1, 0, 1507349, 1, 0, 1507350, 1, 0, 1507351, 0, 0, 1507352, 0, 0, 1507353, 0, 0, 1507354, 0, 0, 1507355, 0, 0, 1507356, 0, 0, 1507357, 0, 0, 1507358, 0, 0, 1507359, 1, 0, 1507360, 1, 0, 1507361, 1, 0, 1507362, 1, 0, 1507363, 0, 0, 1507364, 1, 0, 1507365, 0, 0, 1507366, 0, 0, 1507367, 0, 0, 1507368, 1, 0, 1507369, 0, 0, 1507370, 0, 0, 1507371, 0, 0, 1507372, 0, 0, 1507373, 0, 0, 1507374, 1, 0, 1507375, 1, 0, 1507376, 1, 0, 1507377, 1, 0, 1507378, 1, 0, 1507379, 1, 0, 1507380, 1, 0, 1507381, 1, 0, 1507382, 1, 0, 1507383, 1, 0, 1507384, 1, 0, 1507385, 1, 0, 1507386, 1, 0, 1507387, 1, 0, 1507388, 1, 0, 1507389, 1, 65538, 1572864, 1, 65536, 1572865, 1, 0, 1572866, 1, 0, 1572867, 1, 0, 1572868, 1, 0, 1572869, 1, 0, 1572870, 1, 0, 1572871, 1, 0, 1572872, 1, 0, 1572873, 1, 0, 1572874, 1, 0, 1572875, 1, 0, 1572876, 1, 0, 1572877, 1, 0, 1572878, 1, 0, 1572879, 1, 0, 1572880, 1, 0, 1572881, 1, 0, 1572882, 1, 0, 1572883, 1, 0, 1572884, 1, 0, 1572885, 1, 0, 1572886, 1, 0, 1572887, 0, 0, 1572888, 0, 0, 1572889, 0, 0, 1572890, 0, 0, 1572891, 0, 0, 1572892, 0, 0, 1572893, 0, 0, 1572894, 0, 0, 1572895, 1, 0, 1572896, 0, 0, 1572897, 0, 0, 1572898, 0, 0, 1572899, 0, 0, 1572900, 1, 0, 1572901, 0, 0, 1572902, 0, 0, 1572903, 0, 0, 1572904, 0, 0, 1572905, 0, 0, 1572906, 0, 0, 1572907, 0, 0, 1572908, 0, 0, 1572909, 0, 0, 1572910, 1, 0, 1572911, 1, 0, 1572912, 1, 0, 1572913, 1, 0, 1572914, 1, 0, 1572915, 1, 0, 1572916, 1, 0, 1572917, 1, 0, 1572918, 1, 0, 1572919, 1, 0, 1572920, 1, 0, 1572921, 1, 0, 1572922, 1, 0, 1572923, 1, 0, 1572924, 1, 0, 1572925, 1, 65538, 1638400, 1, 65536, 1638401, 1, 0, 1638402, 1, 0, 1638403, 1, 0, 1638404, 1, 0, 1638405, 1, 0, 1638406, 1, 0, 1638407, 1, 0, 1638408, 1, 0, 1638409, 1, 0, 1638410, 1, 0, 1638411, 1, 0, 1638412, 1, 0, 1638413, 1, 0, 1638414, 1, 0, 1638415, 1, 0, 1638416, 1, 0, 1638417, 1, 0, 1638418, 1, 0, 1638419, 1, 0, 1638420, 1, 0, 1638421, 1, 0, 1638422, 1, 0, 1638423, 0, 0, 1638424, 0, 0, 1638425, 0, 0, 1638426, 0, 0, 1638427, 0, 0, 1638428, 0, 0, 1638429, 0, 0, 1638430, 0, 0, 1638431, 0, 0, 1638432, 0, 0, 1638433, 0, 0, 1638434, 0, 0, 1638435, 0, 0, 1638436, 1, 0, 1638437, 0, 0, 1638438, 0, 0, 1638439, 0, 0, 1638440, 1, 0, 1638441, 0, 0, 1638442, 0, 0, 1638443, 0, 0, 1638444, 0, 0, 1638445, 0, 0, 1638446, 1, 0, 1638447, 1, 0, 1638448, 1, 0, 1638449, 1, 0, 1638450, 1, 0, 1638451, 1, 0, 1638452, 1, 0, 1638453, 1, 0, 1638454, 1, 0, 1638455, 1, 0, 1638456, 1, 0, 1638457, 1, 0, 1638458, 1, 0, 1638459, 1, 0, 1638460, 1, 0, 1638461, 1, 65538, 1703936, 1, 65536, 1703937, 1, 0, 1703938, 1, 0, 1703939, 1, 0, 1703940, 1, 0, 1703941, 1, 0, 1703942, 1, 0, 1703943, 1, 0, 1703944, 1, 0, 1703945, 1, 0, 1703946, 1, 0, 1703947, 1, 0, 1703948, 1, 0, 1703949, 1, 0, 1703950, 1, 0, 1703951, 1, 0, 1703952, 1, 0, 1703953, 1, 0, 1703954, 1, 0, 1703955, 1, 0, 1703956, 1, 0, 1703957, 1, 0, 1703958, 1, 0, 1703959, 0, 0, 1703960, 0, 0, 1703961, 0, 0, 1703962, 0, 0, 1703963, 0, 0, 1703964, 0, 0, 1703965, 0, 0, 1703966, 0, 0, 1703967, 1, 0, 1703968, 0, 0, 1703969, 0, 0, 1703970, 0, 0, 1703971, 0, 0, 1703972, 1, 0, 1703973, 0, 0, 1703974, 0, 0, 1703975, 0, 0, 1703976, 1, 0, 1703977, 1, 0, 1703978, 1, 0, 1703979, 1, 0, 1703980, 1, 0, 1703981, 1, 0, 1703982, 1, 0, 1703983, 1, 0, 1703984, 1, 0, 1703985, 1, 0, 1703986, 1, 0, 1703987, 1, 0, 1703988, 1, 0, 1703989, 1, 0, 1703990, 1, 0, 1703991, 1, 0, 1703992, 1, 0, 1703993, 1, 0, 1703994, 1, 0, 1703995, 1, 0, 1703996, 1, 0, 1703997, 1, 65538, 1769472, 1, 65536, 1769473, 1, 0, 1769474, 1, 0, 1769475, 1, 0, 1769476, 1, 0, 1769477, 1, 0, 1769478, 1, 0, 1769479, 1, 0, 1769480, 1, 0, 1769481, 1, 0, 1769482, 1, 0, 1769483, 1, 0, 1769484, 1, 0, 1769485, 1, 0, 1769486, 1, 0, 1769487, 1, 0, 1769488, 1, 0, 1769489, 1, 0, 1769490, 1, 0, 1769491, 1, 0, 1769492, 1, 0, 1769493, 1, 0, 1769494, 1, 0, 1769495, 0, 0, 1769496, 0, 0, 1769497, 0, 0, 1769498, 0, 0, 1769499, 0, 0, 1769500, 0, 0, 1769501, 0, 0, 1769502, 0, 0, 1769503, 1, 0, 1769504, 0, 0, 1769505, 0, 0, 1769506, 0, 0, 1769507, 0, 0, 1769508, 1, 0, 1769509, 0, 0, 1769510, 0, 0, 1769511, 0, 0, 1769512, 0, 0, 1769513, 0, 0, 1769514, 0, 0, 1769515, 0, 0, 1769516, 0, 0, 1769517, 1, 0, 1769518, 1, 0, 1769519, 1, 0, 1769520, 1, 0, 1769521, 1, 0, 1769522, 1, 0, 1769523, 1, 0, 1769524, 1, 0, 1769525, 1, 0, 1769526, 1, 0, 1769527, 1, 0, 1769528, 1, 0, 1769529, 1, 0, 1769530, 1, 0, 1769531, 1, 0, 1769532, 1, 0, 1769533, 1, 65538, 1835008, 1, 65536, 1835009, 1, 0, 1835010, 1, 0, 1835011, 1, 0, 1835012, 1, 0, 1835013, 1, 0, 1835014, 1, 0, 1835015, 1, 0, 1835016, 1, 0, 1835017, 1, 0, 1835018, 1, 0, 1835019, 1, 0, 1835020, 1, 0, 1835021, 1, 0, 1835022, 1, 0, 1835023, 1, 0, 1835024, 1, 0, 1835025, 1, 0, 1835026, 1, 0, 1835027, 1, 0, 1835028, 1, 0, 1835029, 1, 0, 1835030, 1, 0, 1835031, 0, 0, 1835032, 0, 0, 1835033, 0, 0, 1835034, 0, 0, 1835035, 0, 0, 1835036, 0, 0, 1835037, 0, 0, 1835038, 0, 0, 1835039, 1, 0, 1835040, 1, 0, 1835041, 1, 0, 1835042, 1, 0, 1835043, 1, 0, 1835044, 1, 0, 1835045, 0, 0, 1835046, 0, 0, 1835047, 0, 0, 1835048, 0, 0, 1835049, 0, 0, 1835050, 0, 0, 1835051, 0, 0, 1835052, 1, 0, 1835053, 1, 0, 1835054, 1, 0, 1835055, 1, 0, 1835056, 1, 0, 1835057, 1, 0, 1835058, 1, 0, 1835059, 1, 0, 1835060, 1, 0, 1835061, 1, 0, 1835062, 1, 0, 1835063, 1, 0, 1835064, 1, 0, 1835065, 1, 0, 1835066, 1, 0, 1835067, 1, 0, 1835068, 1, 0, 1835069, 1, 65538, 1900544, 1, 65536, 1900545, 1, 0, 1900546, 1, 0, 1900547, 1, 0, 1900548, 1, 0, 1900549, 1, 0, 1900550, 1, 0, 1900551, 1, 0, 1900552, 1, 0, 1900553, 1, 0, 1900554, 1, 0, 1900555, 1, 0, 1900556, 1, 0, 1900557, 1, 0, 1900558, 1, 0, 1900559, 1, 0, 1900560, 1, 0, 1900561, 1, 0, 1900562, 1, 0, 1900563, 1, 0, 1900564, 1, 0, 1900565, 1, 0, 1900566, 1, 0, 1900567, 1, 0, 1900568, 0, 0, 1900569, 0, 0, 1900570, 0, 0, 1900571, 0, 0, 1900572, 0, 0, 1900573, 0, 0, 1900574, 0, 0, 1900575, 1, 0, 1900576, 0, 0, 1900577, 0, 0, 1900578, 0, 0, 1900579, 0, 0, 1900580, 0, 0, 1900581, 0, 0, 1900582, 0, 0, 1900583, 0, 0, 1900584, 0, 0, 1900585, 0, 0, 1900586, 0, 0, 1900587, 1, 0, 1900588, 1, 0, 1900589, 1, 0, 1900590, 1, 0, 1900591, 1, 0, 1900592, 1, 0, 1900593, 1, 0, 1900594, 1, 0, 1900595, 1, 0, 1900596, 1, 0, 1900597, 1, 0, 1900598, 1, 0, 1900599, 1, 0, 1900600, 1, 0, 1900601, 1, 0, 1900602, 1, 0, 1900603, 1, 0, 1900604, 1, 0, 1900605, 1, 65538, 1966080, 1, 65536, 1966081, 1, 0, 1966082, 1, 0, 1966083, 1, 0, 1966084, 1, 0, 1966085, 1, 0, 1966086, 1, 0, 1966087, 1, 0, 1966088, 1, 0, 1966089, 1, 0, 1966090, 1, 0, 1966091, 1, 0, 1966092, 1, 0, 1966093, 1, 0, 1966094, 1, 0, 1966095, 1, 0, 1966096, 1, 0, 1966097, 1, 0, 1966098, 1, 0, 1966099, 1, 0, 1966100, 1, 0, 1966101, 1, 0, 1966102, 1, 0, 1966103, 1, 0, 1966104, 1, 0, 1966105, 1, 0, 1966106, 1, 0, 1966107, 1, 0, 1966108, 1, 0, 1966109, 1, 0, 1966110, 0, 0, 1966111, 1, 0, 1966112, 0, 0, 1966113, 0, 0, 1966114, 0, 0, 1966115, 0, 0, 1966116, 0, 0, 1966117, 0, 0, 1966118, 0, 0, 1966119, 0, 0, 1966120, 0, 0, 1966121, 0, 0, 1966122, 1, 0, 1966123, 1, 0, 1966124, 1, 0, 1966125, 1, 0, 1966126, 1, 0, 1966127, 1, 0, 1966128, 1, 0, 1966129, 1, 0, 1966130, 1, 0, 1966131, 1, 0, 1966132, 1, 0, 1966133, 1, 0, 1966134, 1, 0, 1966135, 1, 0, 1966136, 1, 0, 1966137, 1, 0, 1966138, 1, 0, 1966139, 1, 0, 1966140, 1, 0, 1966141, 1, 65538, 2031616, 1, 65536, 2031617, 1, 0, 2031618, 1, 0, 2031619, 1, 0, 2031620, 1, 0, 2031621, 1, 0, 2031622, 1, 0, 2031623, 1, 0, 2031624, 1, 0, 2031625, 1, 0, 2031626, 1, 0, 2031627, 1, 0, 2031628, 1, 0, 2031629, 1, 0, 2031630, 1, 0, 2031631, 1, 0, 2031632, 1, 0, 2031633, 1, 0, 2031634, 1, 0, 2031635, 1, 0, 2031636, 1, 0, 2031637, 1, 0, 2031638, 1, 0, 2031639, 1, 0, 2031640, 1, 0, 2031641, 1, 0, 2031642, 1, 0, 2031643, 1, 0, 2031644, 1, 0, 2031645, 1, 0, 2031646, 1, 0, 2031647, 1, 0, 2031648, 1, 0, 2031649, 1, 0, 2031650, 1, 0, 2031651, 1, 0, 2031652, 1, 0, 2031653, 1, 0, 2031654, 1, 0, 2031655, 0, 0, 2031656, 0, 0, 2031657, 1, 0, 2031658, 1, 0, 2031659, 1, 0, 2031660, 1, 0, 2031661, 1, 0, 2031662, 1, 0, 2031663, 1, 0, 2031664, 1, 0, 2031665, 1, 0, 2031666, 1, 0, 2031667, 1, 0, 2031668, 1, 0, 2031669, 1, 0, 2031670, 1, 0, 2031671, 1, 0, 2031672, 1, 0, 2031673, 1, 0, 2031674, 1, 0, 2031675, 1, 0, 2031676, 1, 0, 2031677, 1, 65538, 2097152, 1, 65536, 2097153, 1, 0, 2097154, 1, 0, 2097155, 1, 0, 2097156, 1, 0, 2097157, 1, 0, 2097158, 1, 0, 2097159, 1, 0, 2097160, 1, 0, 2097161, 1, 0, 2097162, 1, 0, 2097163, 1, 0, 2097164, 1, 0, 2097165, 1, 0, 2097166, 1, 0, 2097167, 1, 0, 2097168, 1, 0, 2097169, 1, 0, 2097170, 1, 0, 2097171, 1, 0, 2097172, 1, 0, 2097173, 1, 0, 2097174, 1, 0, 2097175, 1, 0, 2097176, 1, 0, 2097177, 1, 0, 2097178, 1, 0, 2097179, 1, 0, 2097180, 1, 0, 2097181, 1, 0, 2097182, 1, 0, 2097183, 1, 0, 2097184, 1, 0, 2097185, 1, 0, 2097186, 1, 0, 2097187, 1, 0, 2097188, 1, 0, 2097189, 1, 0, 2097190, 1, 0, 2097191, 1, 0, 2097192, 1, 0, 2097193, 1, 0, 2097194, 1, 0, 2097195, 1, 0, 2097196, 1, 0, 2097197, 1, 0, 2097198, 1, 0, 2097199, 1, 0, 2097200, 1, 0, 2097201, 1, 0, 2097202, 1, 0, 2097203, 1, 0, 2097204, 1, 0, 2097205, 1, 0, 2097206, 1, 0, 2097207, 1, 0, 2097208, 1, 0, 2097209, 1, 0, 2097210, 1, 0, 2097211, 1, 0, 2097212, 1, 0, 2097213, 1, 65538, 2162688, 1, 65536, 2162689, 1, 0, 2162690, 1, 0, 2162691, 1, 0, 2162692, 1, 0, 2162693, 1, 0, 2162694, 1, 0, 2162695, 1, 0, 2162696, 1, 0, 2162697, 1, 0, 2162698, 1, 0, 2162699, 1, 0, 2162700, 1, 0, 2162701, 1, 0, 2162702, 1, 0, 2162703, 1, 0, 2162704, 1, 0, 2162705, 1, 0, 2162706, 1, 0, 2162707, 1, 0, 2162708, 1, 0, 2162709, 1, 0, 2162710, 1, 0, 2162711, 1, 0, 2162712, 1, 0, 2162713, 1, 0, 2162714, 1, 0, 2162715, 1, 0, 2162716, 1, 0, 2162717, 1, 0, 2162718, 1, 0, 2162719, 1, 0, 2162720, 1, 0, 2162721, 1, 0, 2162722, 1, 0, 2162723, 1, 0, 2162724, 1, 0, 2162725, 1, 0, 2162726, 1, 0, 2162727, 1, 0, 2162728, 1, 0, 2162729, 1, 0, 2162730, 1, 0, 2162731, 1, 0, 2162732, 1, 0, 2162733, 1, 0, 2162734, 1, 0, 2162735, 1, 0, 2162736, 1, 0, 2162737, 1, 0, 2162738, 1, 0, 2162739, 1, 0, 2162740, 1, 0, 2162741, 1, 0, 2162742, 1, 0, 2162743, 1, 0, 2162744, 1, 0, 2162745, 1, 0, 2162746, 1, 0, 2162747, 1, 0, 2162748, 1, 0, 2162749, 1, 65538, 2228224, 1, 65536, 2228225, 1, 0, 2228226, 1, 0, 2228227, 1, 0, 2228228, 1, 0, 2228229, 1, 0, 2228230, 1, 0, 2228231, 1, 0, 2228232, 1, 0, 2228233, 1, 0, 2228234, 1, 0, 2228235, 1, 0, 2228236, 1, 0, 2228237, 1, 0, 2228238, 1, 0, 2228239, 1, 0, 2228240, 1, 0, 2228241, 1, 0, 2228242, 1, 0, 2228243, 1, 0, 2228244, 1, 0, 2228245, 1, 0, 2228246, 1, 0, 2228247, 1, 0, 2228248, 1, 0, 2228249, 1, 0, 2228250, 1, 0, 2228251, 1, 0, 2228252, 1, 0, 2228253, 1, 0, 2228254, 1, 0, 2228255, 1, 0, 2228256, 1, 0, 2228257, 1, 0, 2228258, 1, 0, 2228259, 1, 0, 2228260, 1, 0, 2228261, 1, 0, 2228262, 1, 0, 2228263, 1, 0, 2228264, 1, 0, 2228265, 1, 0, 2228266, 1, 0, 2228267, 1, 0, 2228268, 1, 0, 2228269, 1, 0, 2228270, 1, 0, 2228271, 1, 0, 2228272, 1, 0, 2228273, 1, 0, 2228274, 1, 0, 2228275, 1, 0, 2228276, 1, 0, 2228277, 1, 0, 2228278, 1, 0, 2228279, 1, 0, 2228280, 1, 0, 2228281, 1, 0, 2228282, 1, 0, 2228283, 1, 0, 2228284, 1, 0, 2228285, 1, 65538, 2293760, 1, 65536, 2293761, 1, 0, 2293762, 1, 0, 2293763, 1, 0, 2293764, 1, 0, 2293765, 1, 0, 2293766, 1, 0, 2293767, 1, 0, 2293768, 1, 0, 2293769, 1, 0, 2293770, 1, 0, 2293771, 1, 0, 2293772, 1, 0, 2293773, 1, 0, 2293774, 1, 0, 2293775, 1, 0, 2293776, 1, 0, 2293777, 1, 0, 2293778, 1, 0, 2293779, 1, 0, 2293780, 1, 0, 2293781, 1, 0, 2293782, 1, 0, 2293783, 1, 0, 2293784, 1, 0, 2293785, 1, 0, 2293786, 1, 0, 2293787, 1, 0, 2293788, 1, 0, 2293789, 1, 0, 2293790, 1, 0, 2293791, 1, 0, 2293792, 1, 0, 2293793, 1, 0, 2293794, 1, 0, 2293795, 1, 0, 2293796, 1, 0, 2293797, 1, 0, 2293798, 1, 0, 2293799, 1, 0, 2293800, 1, 0, 2293801, 1, 0, 2293802, 1, 0, 2293803, 1, 0, 2293804, 1, 0, 2293805, 1, 0, 2293806, 1, 0, 2293807, 1, 0, 2293808, 1, 0, 2293809, 1, 0, 2293810, 1, 0, 2293811, 1, 0, 2293812, 1, 0, 2293813, 1, 0, 2293814, 1, 0, 2293815, 1, 0, 2293816, 1, 0, 2293817, 1, 0, 2293818, 1, 0, 2293819, 1, 0, 2293820, 1, 0, 2293821, 1, 65538, 2359296, 1, 65536, 2359297, 1, 0, 2359298, 1, 0, 2359299, 1, 0, 2359300, 1, 0, 2359301, 1, 0, 2359302, 1, 0, 2359303, 1, 0, 2359304, 1, 0, 2359305, 1, 0, 2359306, 1, 0, 2359307, 1, 0, 2359308, 1, 0, 2359309, 1, 0, 2359310, 1, 0, 2359311, 1, 0, 2359312, 1, 0, 2359313, 1, 0, 2359314, 1, 0, 2359315, 1, 0, 2359316, 1, 0, 2359317, 1, 0, 2359318, 1, 0, 2359319, 1, 0, 2359320, 1, 0, 2359321, 1, 0, 2359322, 1, 0, 2359323, 1, 0, 2359324, 1, 0, 2359325, 1, 0, 2359326, 1, 0, 2359327, 1, 0, 2359328, 1, 0, 2359329, 1, 0, 2359330, 1, 0, 2359331, 1, 0, 2359332, 1, 0, 2359333, 1, 0, 2359334, 1, 0, 2359335, 1, 0, 2359336, 1, 0, 2359337, 1, 0, 2359338, 1, 0, 2359339, 1, 0, 2359340, 1, 0, 2359341, 1, 0, 2359342, 1, 0, 2359343, 1, 0, 2359344, 1, 0, 2359345, 1, 0, 2359346, 1, 0, 2359347, 1, 0, 2359348, 1, 0, 2359349, 1, 0, 2359350, 1, 0, 2359351, 1, 0, 2359352, 1, 0, 2359353, 1, 0, 2359354, 1, 0, 2359355, 1, 0, 2359356, 1, 0, 2359357, 1, 65538, 2424832, 1, 65536, 2424833, 1, 0, 2424834, 1, 0, 2424835, 1, 0, 2424836, 1, 0, 2424837, 1, 0, 2424838, 1, 0, 2424839, 1, 0, 2424840, 1, 0, 2424841, 1, 0, 2424842, 1, 0, 2424843, 1, 0, 2424844, 1, 0, 2424845, 1, 0, 2424846, 1, 0, 2424847, 1, 0, 2424848, 1, 0, 2424849, 1, 0, 2424850, 1, 0, 2424851, 1, 0, 2424852, 1, 0, 2424853, 1, 0, 2424854, 1, 0, 2424855, 1, 0, 2424856, 1, 0, 2424857, 1, 0, 2424858, 1, 0, 2424859, 1, 0, 2424860, 1, 0, 2424861, 1, 0, 2424862, 1, 0, 2424863, 1, 0, 2424864, 1, 0, 2424865, 1, 0, 2424866, 1, 0, 2424867, 1, 0, 2424868, 1, 0, 2424869, 1, 0, 2424870, 1, 0, 2424871, 1, 0, 2424872, 1, 0, 2424873, 1, 0, 2424874, 1, 0, 2424875, 1, 0, 2424876, 1, 0, 2424877, 1, 0, 2424878, 1, 0, 2424879, 1, 0, 2424880, 1, 0, 2424881, 1, 0, 2424882, 1, 0, 2424883, 1, 0, 2424884, 1, 0, 2424885, 1, 0, 2424886, 1, 0, 2424887, 1, 0, 2424888, 1, 0, 2424889, 1, 0, 2424890, 1, 0, 2424891, 1, 0, 2424892, 1, 0, 2424893, 1, 65538, 2490368, 1, 65536, 2490369, 1, 0, 2490370, 1, 0, 2490371, 1, 0, 2490372, 1, 0, 2490373, 1, 0, 2490374, 1, 0, 2490375, 1, 0, 2490376, 1, 0, 2490377, 1, 0, 2490378, 1, 0, 2490379, 1, 0, 2490380, 1, 0, 2490381, 1, 0, 2490382, 1, 0, 2490383, 1, 0, 2490384, 1, 0, 2490385, 1, 0, 2490386, 1, 0, 2490387, 1, 0, 2490388, 1, 0, 2490389, 1, 0, 2490390, 1, 0, 2490391, 1, 0, 2490392, 1, 0, 2490393, 1, 0, 2490394, 1, 0, 2490395, 1, 0, 2490396, 1, 0, 2490397, 1, 0, 2490398, 1, 0, 2490399, 1, 0, 2490400, 1, 0, 2490401, 1, 0, 2490402, 1, 0, 2490403, 1, 0, 2490404, 1, 0, 2490405, 1, 0, 2490406, 1, 0, 2490407, 1, 0, 2490408, 1, 0, 2490409, 1, 0, 2490410, 1, 0, 2490411, 1, 0, 2490412, 1, 0, 2490413, 1, 0, 2490414, 1, 0, 2490415, 1, 0, 2490416, 1, 0, 2490417, 1, 0, 2490418, 1, 0, 2490419, 1, 0, 2490420, 1, 0, 2490421, 1, 0, 2490422, 1, 0, 2490423, 1, 0, 2490424, 1, 0, 2490425, 1, 0, 2490426, 1, 0, 2490427, 1, 0, 2490428, 1, 0, 2490429, 1, 65538, 2555904, 1, 65536, 2555905, 1, 0, 2555906, 1, 0, 2555907, 1, 0, 2555908, 1, 0, 2555909, 1, 0, 2555910, 1, 0, 2555911, 1, 0, 2555912, 1, 0, 2555913, 1, 0, 2555914, 1, 0, 2555915, 1, 0, 2555916, 1, 0, 2555917, 1, 0, 2555918, 1, 0, 2555919, 1, 0, 2555920, 1, 0, 2555921, 1, 0, 2555922, 1, 0, 2555923, 1, 0, 2555924, 1, 0, 2555925, 1, 0, 2555926, 1, 0, 2555927, 1, 0, 2555928, 1, 0, 2555929, 1, 0, 2555930, 1, 0, 2555931, 1, 0, 2555932, 1, 0, 2555933, 1, 0, 2555934, 1, 0, 2555935, 1, 0, 2555936, 1, 0, 2555937, 1, 0, 2555938, 1, 0, 2555939, 1, 0, 2555940, 1, 0, 2555941, 1, 0, 2555942, 1, 0, 2555943, 1, 0, 2555944, 1, 0, 2555945, 1, 0, 2555946, 1, 0, 2555947, 1, 0, 2555948, 1, 0, 2555949, 1, 0, 2555950, 1, 0, 2555951, 1, 0, 2555952, 1, 0, 2555953, 1, 0, 2555954, 1, 0, 2555955, 1, 0, 2555956, 1, 0, 2555957, 1, 0, 2555958, 1, 0, 2555959, 1, 0, 2555960, 1, 0, 2555961, 1, 0, 2555962, 1, 0, 2555963, 1, 0, 2555964, 1, 0, 2555965, 1, 65538, 2621440, 1, 65536, 2621441, 1, 0, 2621442, 1, 0, 2621443, 1, 0, 2621444, 1, 0, 2621445, 1, 0, 2621446, 1, 0, 2621447, 1, 0, 2621448, 1, 0, 2621449, 1, 0, 2621450, 1, 0, 2621451, 1, 0, 2621452, 1, 0, 2621453, 1, 0, 2621454, 1, 0, 2621455, 1, 0, 2621456, 1, 0, 2621457, 1, 0, 2621458, 1, 0, 2621459, 1, 0, 2621460, 1, 0, 2621461, 1, 0, 2621462, 1, 0, 2621463, 1, 0, 2621464, 1, 0, 2621465, 1, 0, 2621466, 1, 0, 2621467, 1, 0, 2621468, 1, 0, 2621469, 1, 0, 2621470, 1, 0, 2621471, 1, 0, 2621472, 1, 0, 2621473, 1, 0, 2621474, 1, 0, 2621475, 1, 0, 2621476, 1, 0, 2621477, 1, 0, 2621478, 1, 0, 2621479, 1, 0, 2621480, 1, 0, 2621481, 1, 0, 2621482, 1, 0, 2621483, 1, 0, 2621484, 1, 0, 2621485, 1, 0, 2621486, 1, 0, 2621487, 1, 0, 2621488, 1, 0, 2621489, 1, 0, 2621490, 1, 0, 2621491, 1, 0, 2621492, 1, 0, 2621493, 1, 0, 2621494, 1, 0, 2621495, 1, 0, 2621496, 1, 0, 2621497, 1, 0, 2621498, 1, 0, 2621499, 1, 0, 2621500, 1, 0, 2621501, 1, 65538, 2686976, 1, 131072, 2686977, 1, 131073, 2686978, 1, 131073, 2686979, 1, 131073, 2686980, 1, 131073, 2686981, 1, 131073, 2686982, 1, 131073, 2686983, 1, 131073, 2686984, 1, 131073, 2686985, 1, 131073, 2686986, 1, 131073, 2686987, 1, 131073, 2686988, 1, 131073, 2686989, 1, 131073, 2686990, 1, 131073, 2686991, 1, 131073, 2686992, 1, 131073, 2686993, 1, 131073, 2686994, 1, 131073, 2686995, 1, 131073, 2686996, 1, 131073, 2686997, 1, 131073, 2686998, 1, 131073, 2686999, 1, 131073, 2687000, 1, 131073, 2687001, 1, 131073, 2687002, 1, 131073, 2687003, 1, 131073, 2687004, 1, 131073, 2687005, 1, 131073, 2687006, 1, 131073, 2687007, 1, 131073, 2687008, 1, 131073, 2687009, 1, 131073, 2687010, 1, 131073, 2687011, 1, 131073, 2687012, 1, 131073, 2687013, 1, 131073, 2687014, 1, 131073, 2687015, 1, 131073, 2687016, 1, 131073, 2687017, 1, 131073, 2687018, 1, 131073, 2687019, 1, 131073, 2687020, 1, 131073, 2687021, 1, 131073, 2687022, 1, 131073, 2687023, 1, 131073, 2687024, 1, 131073, 2687025, 1, 131073, 2687026, 1, 131073, 2687027, 1, 131073, 2687028, 1, 131073, 2687029, 1, 131073, 2687030, 1, 131073, 2687031, 1, 131073, 2687032, 1, 131073, 2687033, 1, 131073, 2687034, 1, 131073, 2687035, 1, 131073, 2687036, 1, 131073, 2687037, 1, 131074 )
script = ExtResource( 5 )

[node name="Player" parent="." instance=ExtResource( 3 )]
position = Vector2( 448, 384 )

[node name="Camera2D" type="Camera2D" parent="Player"]
current = true
smoothing_enabled = true
drag_margin_left = 0.0
drag_margin_top = 0.0
drag_margin_right = 0.0
drag_margin_bottom = 0.0

[node name="CanvasLayer" type="CanvasLayer" parent="."]

[node name="UI" parent="CanvasLayer" instance=ExtResource( 4 )]
